INDEX VERSION 1.131+C:\Users\tina1\OneDrive\바탕 화면\프로그래밍\Java\.metadata\.plugins\org.eclipse.jdt.core
1692395065.index
1279913850.index
3924432333.index
3872537624.index
277098456.index
2469393919.index
2517282340.index
2981354914.index
4292287268.index
1240120055.index
1307231121.index
3259128581.index
4291119242.index
449384428.index
549687561.index
3315403139.index
3749953610.index
2604515582.index
2478807299.index
1784213029.index
